{
    "events": [
        {
            "title": "Retirar PC from events.json using resource",
            "color": "green",
            "startsAt": "2017-11-12T12:00:00.000Z",
            "endsAt": "2017-11-12T13:00:00.000Z",
            "actions": [
                {
                    "label": "<i class='glyphicon glyphicon-pencil'></i>"
                },
                {
                    "label": "<i class='glyphicon glyphicon-remove'></i>"
                }
            ],
            "draggable": true,
            "resizable": true,
            "incrementsBadgeTotal": true,
            "allDay": false
        },
        {
            "title": "No puede imprimir from events.json using resource",
            "startsAt": "2017-11-13T16:00:00.000Z",
            "endsAt": "2017-11-13T17:00:00.000Z",
            "actions": [
                {
                    "label": "<i class='glyphicon glyphicon-pencil'></i>"
                },
                {
                    "label": "<i class='glyphicon glyphicon-remove'></i>"
                }
            ],
            "draggable": true,
            "resizable": true,
            "incrementsBadgeTotal": true,
            "allDay": false
        },
        {
            "title": "Cobrar abonos from events.json using resource",
            "startsAt": "2017-11-13T18:00:00.000Z",
            "endsAt": "2017-11-13T19:00:00.000Z",
            "actions": [
                {
                    "label": "<i class='glyphicon glyphicon-pencil'></i>"
                },
                {
                    "label": "<i class='glyphicon glyphicon-remove'></i>"
                }
            ],
            "draggable": true,
            "resizable": true,
            "recursOn": "month",
            "incrementsBadgeTotal": true,
            "allDay": false
        },
        {
            "title": "Resizable event from events.json using resource",
            "color": {
                "primary": "#e3bc08",
                "secondary": "#fdf1ba"
            },
            "startsAt": "2017-11-15T18:00:00.000Z",
            "endsAt": "2017-11-15T19:00:00.000Z",
            "resizable": true,
            "calendarEventId": 0
        }
    ]
}
